{
  "deviceID":"samsung-galaxy-s6-edge",
  "name":"my-events-1",
  "events":[
    {
      "id":1,
      "title":"Event 1",
      "startTime":1473778800000,
      "endTime":1473865199000,
      "allDay":true
    },
    {
      "id":2,
      "title":"Event 2",
      "startTime":1473912000000,
      "endTime":1473919200000,
      "allDay":false
    }
  ]
}
